Company,"Amount Trees","Invoice Number",Money,"Date Invoice","Paid Date"
"Meat Inc.",288,5735,285.12,2019.03.13,2019.03.19
Leggero,603,5734,596.97,2019.03.13,2019.03.19
Cofoco,4404,5728,4359.96,2019.03.11,2019.03.18
Rossopomodoro,3747,5723,3709.53,2019.03.08,2019.03.20
"The Vaults Theatre",9,5721,8.91,2019.03.07,2019.03.13
"Windsor Bars",431,5720,426.69,2019.03.06,2019.03.13
"Lal Churrasco",128,5718,126.72,2019.03.06,2019.03.12
"Cardlink Systems Ltd",8469,5715,8384.31,2019.03.05,2019.03.20
Frenchie,1267,5714,1254.33,2019.03.05,2019.03.11
"Roz Ana",211,5713,208.89,2019.03.04,2019.03.08
"The Set",42,5711,41.58,2019.03.04,2019.03.08
Meejana,199,5710,197.01,2019.03.04,2019.03.08
Meejana,175,5709,173.25,2019.03.04,2019.03.08
"Cafe Spice Namaste Ltd",6,5708,5.94,2019.03.01,2019.03.07
"The Alfred Tennyson",754,5705,746.46,2019.03.01,2019.03.07
"The Harbour Club",161,5704,159.39,2019.03.01,2019.03.07
"The Coach Makers Arms",590,5702,584.1,2019.03.01,2019.03.07
Yamas,1294,5701,1281.06,2019.03.01,2019.03.07
"Vault Festival",995,5700,985.05,2019.03.01,2019.03.07
Kai,1109,5699,1097.91,2019.03.01,2019.03.07
"Hungry Oven",134,5698,132.66,2019.03.01,2019.03.07
Indique,521,5697,515.79,2019.03.01,2019.03.07
"French Kitchen",2,5696,1.98,2019.03.01,2019.03.07
"River Terrace Cafe",29,5695,28.71,2019.03.01,2019.03.07
"Meejana Windsor",185,5693,183.15,2019.03.01,2019.03.07
"Cafe Spice Namaste",191,5692,189.09,2019.03.01,2019.03.07
"Zafferelli ",165,5691,163.35,2019.03.01,2019.03.07
"The Regency Club",1989,5690,1969.11,2019.03.01,2019.03.07
"Robinsons Farm Shop",172,5689,170.28,2019.03.01,2019.03.07
"Smoke & Rye",616,5688,609.84,2019.03.01,2019.03.07
"V-Rev Manchester",2470,5685,2445.3,2019.03.01,2019.03.07
"The Little Viet Kitchen",619,5684,612.81,2019.03.01,2019.03.08
"Lal Churrasco",51,5682,50.49,2019.02.27,2019.03.05
"The Set",42,5681,41.58,2019.02.27,2019.03.05
"Caesars Entertainment UK",1314,5680,1300.86,2019.02.25,2019.03.11
Total,33382,,33048.18,
