Company,"Amount Trees","Invoice Number",Money,"Date Invoice"
"Armstrong Fluid Technology",1,5624,0.99,2019.01.24
"Armstrong Fluid Technology",1,5623,0.99,2019.01.24
"Armstrong Fluid Technology",1,5622,0.99,2019.01.24
"Armstrong Fluid Technology",1,5621,0.99,2019.01.24
Meejana,225,5620,222.75,2019.01.23
LoopUp,354,5619,350.46,2019.01.21
"Armstrong Fluid Technology",1,5618,0.99,2019.01.21
"Armstrong Fluid Technology",1,5617,0.99,2019.01.21
"Armstrong Fluid Technology",1,5616,0.99,2019.01.21
"Vault Festival",2,5615,1.98,2019.01.21
"The Set",86,5614,85.14,2019.01.17
"New MoOn Tapas ",83,5613,82.17,2019.01.14
"Sonne Energéticos",496,5612,491.04,2019.01.14
"Business Fuel Cards Pty Ltd",528,5611,522.72,2019.01.14
"Cardlink Systems Ltd",7954,5610,7874.46,2019.01.14
"Windsor Bars",715,5609,707.85,2019.01.10
"Savona Foodservice",86,5608,42.57,2019.01.08
Rossopomodoro,6556,5607,6490.44,2019.01.07
"Meat Inc.",567,5606,561.33,2019.01.05
"Roz Ana",478,5605,473.22,2019.01.04
"The Galley",98,5604,97.02,2019.01.04
Leggero,458,5603,453.42,2019.01.04
"Caesars Entertainment UK",1207,5602,1194.93,2019.01.04
"Cofoco Food Julefrokost Billing Account",5250,5601,3675,2019.01.04
LoopUp,517,5600,511.83,2019.01.03
"Maki Restaurant",232,5599,229.68,2019.01.02
"Erpingham House",253,5598,250.47,2019.01.02
"Cafe Spice Namaste Ltd",416,5597,411.84,2019.01.02
Kai,41,5596,40.59,2019.01.02
"Hungry Oven",166,5595,164.34,2019.01.02
Indique,541,5594,535.59,2019.01.02
"River Terrace Cafe",52,5591,51.48,2019.01.02
REDBOX,58,5590,57.42,2019.01.02
"Meejana Windsor",127,5589,125.73,2019.01.02
"Cafe Spice Namaste",72,5588,71.28,2019.01.02
"Zafferelli ",493,5587,488.07,2019.01.02
"The Regency Club",2364,5586,2340.36,2019.01.02
"Robinsons Farm Shop",282,5585,279.18,2019.01.02
"Smoke & Rye",308,5584,304.92,2019.01.02
Dokke,166,5583,164.34,2019.01.02
Zouk,3445,5582,3410.55,2019.01.02
"Le Roi Fou",21,5581,20.79,2019.01.02
"V-Rev Manchester",2631,5580,2604.69,2019.01.02
"The Little Viet Kitchen",458,5579,453.42,2019.01.02
LowToxBox,31,5578,24.49,2019.01.01
Meejana,277,5576,274.23,2018.12.20
"Cofoco Food Julefrokost Billing Account",10000,5575,7000,2018.12.18
CSRA,5,5574,4.95,2018.12.17
CSRA,5,5573,4.95,2018.12.17
"Savona Foodservice",78,5572,38.61,2018.12.15
"Maki Restaurant",212,5571,209.88,2018.12.15
Rossopomodoro,7456,5570,7381.44,2018.12.14
"Caesars Entertainment UK",1236,5569,1223.64,2018.12.13
"Erpingham House",284,5568,281.16,2018.12.13
"The Set",102,5567,100.98,2018.12.12
"Roz Ana",480,5566,475.2,2018.12.10
"The Galley",232,5565,229.68,2018.12.05
"Business Fuel Cards Pty Ltd",389,5564,385.11,2018.12.04
"Cardlink Systems Ltd",898,5563,889.02,2018.12.04
"Sonne Energéticos",496,5562,491.04,2018.12.04
"Faringo’s Vegan",12,5561,11.88,2018.12.04
"Windsor Bars",1054,5560,1043.46,2018.12.03
"Cafe Spice Namaste Ltd",540,5559,534.6,2018.12.03
"Waterside Bistro & Bar",232,5558,229.68,2018.12.03
"Meat Inc.",691,5557,684.09,2018.12.03
Frenchie,1537,5556,1521.63,2018.12.03
Frenchie,1537,5555,1521.63,2018.12.03
"Hungry Oven",16,5554,15.84,2018.12.03
Indique,477,5553,472.23,2018.12.03
"French Kitchen",20,5552,19.8,2018.12.03
"River Terrace Cafe",148,5551,146.52,2018.12.03
"Meejana Windsor",0,5550,-0.99,2018.12.03
"Zafferelli ",479,5549,474.21,2018.12.03
"The Regency Club",2258,5548,2235.42,2018.12.03
"Robinsons Farm Shop",284,5547,281.16,2018.12.03
SIX,835,5546,826.65,2018.12.03
"Smoke & Rye",328,5545,324.72,2018.12.03
Dokke,219,5544,216.81,2018.12.03
Zouk,3389,5543,3355.11,2018.12.03
"Le Roi Fou",274,5542,271.26,2018.12.03
"V-Rev Manchester",2653,5541,2626.47,2018.12.03
"The Little Viet Kitchen",698,5540,691.02,2018.12.03
REDBOX,1,5538,0.99,2018.11.23
REDBOX,16,5537,15.84,2018.11.23
REDBOX,2,5536,1.98,2018.11.22
"Living Green Yoga",1,5535,0.99,2018.11.22
"Living Green Yoga",1,5534,0.99,2018.11.22
REDBOX,6,5533,5.94,2018.11.22
REDBOX,2,5532,1.98,2018.11.20
"Lal Churrasco",109,5531,107.91,2018.11.20
"Faringo’s Vegan",59,5530,58.41,2018.11.20
"Cofoco Food Julefrokost Billing Account",10000,5529,7000,2018.11.19
REDBOX,4,5528,3.96,2018.11.19
"Smoke & Rye",222,5527,219.78,2018.11.15
LoopUp,545,5526,539.55,2018.11.14
"Maki Restaurant",256,5525,253.44,2018.11.14
Meejana,335,5524,331.65,2018.11.13
Rossopomodoro,7182,5523,7110.18,2018.11.08
"Liaise Bistro",26,5522,25.74,2018.11.08
"Windsor Bars",1279,5521,1266.21,2018.11.07
"Caesars Entertainment UK",1229,5520,1216.71,2018.11.07
"Lux Rewards",1,5519,0.99,2018.11.07
"Business Fuel Cards Pty Ltd",380,5518,376.2,2018.11.06
"Cardlink Systems Ltd",862,5517,853.38,2018.11.06
"New MoOn Tapas ",164,5516,162.36,2018.11.05
"Eastzeast Blackburn",953,5515,943.47,2018.11.05
"Roz Ana",523,5514,517.77,2018.11.05
Frenchie,1395,5513,1381.05,2018.11.05
"Erpingham House",245,5512,242.55,2018.11.05
"Meat Inc.",15,5511,14.85,2018.11.03
"The Galley",116,5510,114.84,2018.11.02
LowToxBox,9,5509,7.11,2018.11.01
"Cafe Spice Namaste Ltd",63,5508,62.37,2018.11.01
"The Set",84,5507,83.16,2018.11.01
"Savona Foodservice",90,5506,44.55,2018.11.01
Indique,528,5505,522.72,2018.11.01
"French Kitchen",64,5504,63.36,2018.11.01
"River Terrace Cafe",238,5503,235.62,2018.11.01
"Cafe Spice Namaste",13,5502,12.87,2018.11.01
"Zafferelli ",771,5501,763.29,2018.11.01
"The Regency Club",2469,5500,2444.31,2018.11.01
"Robinsons Farm Shop",447,5498,442.53,2018.11.01
SIX,1252,5497,1239.48,2018.11.01
"Smoke & Rye",222,5496,219.78,2018.11.01
Dokke,221,5495,218.79,2018.11.01
Zouk,3703,5494,3665.97,2018.11.01
"Le Roi Fou",220,5493,217.8,2018.11.01
"V-Rev Manchester",2661,5492,2634.39,2018.11.01
"The Little Viet Kitchen",676,5491,669.24,2018.11.01
Total,117315,,108684.63,
