Company,"Amount Trees","Invoice Number",Money,"Date Invoice","Paid Date"
CSRA,5,5573,4.95,2018.12.17,2018.12.29
Meejana,277,5576,274.23,2018.12.20,2018.12.28
"Maki Restaurant",212,5571,209.88,2018.12.15,2018.12.21
Total,494,,489.06,
