Company,"Amount Trees","Invoice Number",Money,"Date Invoice"
"Armstrong Fluid Technology",1,5624,0.99,2019.01.24
"Armstrong Fluid Technology",1,5623,0.99,2019.01.24
"Armstrong Fluid Technology",1,5622,0.99,2019.01.24
"Armstrong Fluid Technology",1,5621,0.99,2019.01.24
"Armstrong Fluid Technology",1,5618,0.99,2019.01.21
"Armstrong Fluid Technology",1,5617,0.99,2019.01.21
"Armstrong Fluid Technology",1,5616,0.99,2019.01.21
"Vault Festival",2,5615,1.98,2019.01.21
"Sonne Energéticos",496,5612,491.04,2019.01.14
"Savona Foodservice",86,5608,42.57,2019.01.08
Kai,41,5596,40.59,2019.01.02
REDBOX,58,5590,57.42,2019.01.02
LowToxBox,31,5578,24.49,2019.01.01
CSRA,5,5574,4.95,2018.12.17
"Cafe Spice Namaste Ltd",540,5559,534.6,2018.12.03
"Waterside Bistro & Bar",232,5558,229.68,2018.12.03
"Hungry Oven",16,5554,15.84,2018.12.03
"River Terrace Cafe",148,5551,146.52,2018.12.03
"Meejana Windsor",0,5550,-0.99,2018.12.03
SIX,835,5546,826.65,2018.12.03
REDBOX,1,5538,0.99,2018.11.23
"Living Green Yoga",1,5535,0.99,2018.11.22
"Living Green Yoga",1,5534,0.99,2018.11.22
REDBOX,2,5532,1.98,2018.11.20
REDBOX,4,5528,3.96,2018.11.19
"Lux Rewards",1,5519,0.99,2018.11.07
LowToxBox,9,5509,7.11,2018.11.01
"Cafe Spice Namaste Ltd",63,5508,62.37,2018.11.01
"River Terrace Cafe",238,5503,235.62,2018.11.01
"Zafferelli ",771,5501,763.29,2018.11.01
REDBOX,6,5487,5.94,2018.10.25
REDBOX,4,5484,3.96,2018.10.22
LoopUp,544,5464,538.56,2018.10.03
LowToxBox,10,5450,7.9,2018.10.01
Indique,46,5447,45.54,2018.10.01
"Zafferelli ",803,5445,794.97,2018.10.01
LowToxBox,4,5406,3.16,2018.09.09
"Windsor Bars",874,5403,865.26,2018.09.05
Beastro,12,5401,11.88,2018.09.03
"Zafferelli ",1418,5397,1403.82,2018.09.03
"Lux Rewards",1,5383,0.99,2018.08.22
"Waterside Bistro & Bar",137,5371,135.63,2018.08.02
"Zafferelli ",994,5366,984.06,2018.08.01
Beastro,27,5356,26.73,2018.08.01
"Windsor Bars",1,5324,0,2018.07.24
CSRA,7,5300,6.93,2018.07.12
"Savona Foodservice",64,5299,31.68,2018.07.12
"Lux Rewards",12,5246,11.88,2018.06.25
"Lux Rewards",1,5245,0.99,2018.06.25
"Waterside Bistro & Bar",160,5293,158.4,2018.06.11
Total,8713,,8538.84,
