Company,"Amount Trees","Invoice Number",Money,"Date Invoice"
"New MoOn Tapas ",164,5516,162.36,2018.11.05
"Eastzeast Blackburn",953,5515,943.47,2018.11.05
"Roz Ana",523,5514,517.77,2018.11.05
Frenchie,1395,5513,1381.05,2018.11.05
"Erpingham House",245,5512,242.55,2018.11.05
"Meat Inc.",15,5511,14.85,2018.11.03
"The Galley",116,5510,114.84,2018.11.02
LowToxBox,9,5509,7.11,2018.11.01
"Cafe Spice Namaste Ltd",63,5508,62.37,2018.11.01
"The Set",84,5507,83.16,2018.11.01
"Savona Foodservice",90,5506,44.55,2018.11.01
Indique,528,5505,522.72,2018.11.01
"French Kitchen",64,5504,63.36,2018.11.01
"River Terrace Cafe",238,5503,235.62,2018.11.01
"Cafe Spice Namaste",13,5502,12.87,2018.11.01
"Zafferelli ",771,5501,763.29,2018.11.01
"The Regency Club",2469,5500,2444.31,2018.11.01
"Wolfox Brighton",0,5499,0,2018.11.01
"Robinsons Farm Shop",447,5498,442.53,2018.11.01
SIX,1252,5497,1239.48,2018.11.01
"Smoke & Rye",222,5496,219.78,2018.11.01
Dokke,221,5495,218.79,2018.11.01
Zouk,3703,5494,3665.97,2018.11.01
"Le Roi Fou",220,5493,217.8,2018.11.01
"V-Rev Manchester",2661,5492,2634.39,2018.11.01
"The Little Viet Kitchen",676,5491,669.24,2018.11.01
Total,17142,,16924.23,
