Company,"Amount Trees","Invoice Number",Money,"Date Invoice","Paid Date"
LoopUp,517,5600,511.83,2019.01.03,2019.02.27
LoopUp,354,5619,350.46,2019.01.21,2019.02.27
Rossopomodoro,3759,5657,3721.41,2019.02.11,2019.02.27
"Business Fuel Cards Pty Ltd",398,5662,394.02,2019.02.11,2019.02.27
"Cardlink Systems Ltd",8323,5661,8239.77,2019.02.11,2019.02.27
"Business Fuel Cards Pty Ltd",528,5611,522.72,2019.01.14,2019.02.27
"Cardlink Systems Ltd",7954,5610,7874.46,2019.01.14,2019.02.27
"Caesars Entertainment UK",1207,5602,1194.93,2019.01.04,2019.02.27
"Erpingham House",265,5672,262.35,2019.02.14,2019.02.21
"Maki Restaurant",134,5665,132.66,2019.02.12,2019.02.18
"The Galley",121,5664,119.79,2019.02.12,2019.02.18
Meejana,225,5659,222.75,2019.02.11,2019.02.15
Frenchie,1267,5658,1254.33,2019.02.11,2019.02.15
"Windsor Bars",418,5653,413.82,2019.02.05,2019.02.11
"Cafe Spice Namaste Ltd",103,5651,101.97,2019.02.04,2019.02.08
"Roz Ana",353,5650,349.47,2019.02.04,2019.02.08
"Meat Inc.",282,5649,279.18,2019.02.04,2019.02.08
Leggero,592,5648,586.08,2019.02.04,2019.02.08
"Cafe Spice Namaste",145,5634,143.55,2019.02.01,2019.02.07
"The Coach Makers Arms",72,5645,71.28,2019.02.01,2019.02.07
Indique,388,5639,384.12,2019.02.01,2019.02.07
"French Kitchen",7,5638,6.93,2019.02.01,2019.02.07
"River Terrace Cafe",53,5637,52.47,2019.02.01,2019.02.07
"The Regency Club",1882,5632,1863.18,2019.02.01,2019.02.07
Yamas,329,5643,325.71,2019.02.01,2019.02.07
"Meejana Windsor",120,5635,118.8,2019.02.01,2019.02.07
"Zafferelli ",148,5633,146.52,2019.02.01,2019.02.07
"V-Rev Manchester",2526,5627,2500.74,2019.02.01,2019.02.07
"Hungry Oven",124,5640,122.76,2019.02.01,2019.02.07
Dokke,149,5629,147.51,2019.02.01,2019.02.07
"Vault Festival",163,5642,161.37,2019.02.01,2019.02.07
"Robinsons Farm Shop",136,5631,134.64,2019.02.01,2019.02.07
"Smoke & Rye",331,5630,327.69,2019.02.01,2019.02.07
Zouk,3445,5582,3410.55,2019.01.02,2019.02.04
"The Little Viet Kitchen",529,5626,523.71,2019.02.01,2019.02.03
Meejana,225,5620,222.75,2019.01.23,2019.01.29
Total,37572,,37196.28,
