Company,"Amount Trees","Invoice Number",Money,"Date Invoice","Paid Date"
"Cardlink Systems Ltd",898,5563,889.02,2018.12.04,2018.12.29
CSRA,5,5573,4.95,2018.12.17,2018.12.29
Meejana,277,5576,274.23,2018.12.20,2018.12.28
"Maki Restaurant",212,5571,209.88,2018.12.15,2018.12.21
"Erpingham House",284,5568,281.16,2018.12.13,2018.12.19
"The Set",102,5567,100.98,2018.12.12,2018.12.18
"Caesars Entertainment UK",1229,5520,1216.71,2018.11.07,2018.12.13
"The Galley",232,5565,229.68,2018.12.05,2018.12.11
"Sonne Energéticos",496,5562,491.04,2018.12.04,2018.12.10
"Windsor Bars",1054,5560,1043.46,2018.12.03,2018.12.10
Indique,477,5553,472.23,2018.12.03,2018.12.07
"French Kitchen",20,5552,19.8,2018.12.03,2018.12.07
Frenchie,1537,5555,1521.63,2018.12.03,2018.12.07
"The Regency Club",2258,5548,2235.42,2018.12.03,2018.12.07
"Meat Inc.",691,5557,684.09,2018.12.03,2018.12.07
"Zafferelli ",479,5549,474.21,2018.12.03,2018.12.07
"V-Rev Manchester",2653,5541,2626.47,2018.12.03,2018.12.07
Dokke,219,5544,216.81,2018.12.03,2018.12.07
"Robinsons Farm Shop",284,5547,281.16,2018.12.03,2018.12.07
"Smoke & Rye",328,5545,324.72,2018.12.03,2018.12.07
"Le Roi Fou",274,5542,271.26,2018.12.03,2018.12.07
"Smoke & Rye",222,5527,219.78,2018.11.15,2018.12.07
LoopUp,545,5526,539.55,2018.11.14,2018.12.06
"The Little Viet Kitchen",698,5540,691.02,2018.12.03,2018.12.04
Zouk,3703,5494,3665.97,2018.11.01,2018.12.04
REDBOX,6,5533,5.94,2018.11.22,2018.12.03
REDBOX,2,5536,1.98,2018.11.22,2018.12.03
REDBOX,16,5537,15.84,2018.11.23,2018.12.03
REDBOX,1,5486,0.99,2018.10.24,2018.12.03
"Sonne Energéticos",496,5488,491.04,2018.10.29,2018.11.30
"Cofoco Food Julefrokost Billing Account",10000,5529,7000,2018.11.19,2018.11.26
"Lal Churrasco",109,5531,107.91,2018.11.20,2018.11.26
"Faringo’s Vegan",59,5530,58.41,2018.11.20,2018.11.26
Total,29866,,26667.34,
