Company,"Amount Trees","Invoice Number",Money,"Date Invoice","Paid Date"
"The Set",86,5614,85.14,2019.01.17,2019.01.23
Rossopomodoro,6556,5607,6490.44,2019.01.07,2019.01.21
"New MoOn Tapas ",83,5613,82.17,2019.01.14,2019.01.18
"Windsor Bars",715,5609,707.85,2019.01.10,2019.01.16
"Savona Foodservice",78,5572,38.61,2018.12.15,2019.01.14
"Cofoco Food Julefrokost Billing Account",10000,5575,7000,2018.12.18,2019.01.14
"Cofoco Food Julefrokost Billing Account",5250,5601,3675,2019.01.04,2019.01.14
"Caesars Entertainment UK",1236,5569,1223.64,2018.12.13,2019.01.11
"The Little Viet Kitchen",458,5579,453.42,2019.01.02,2019.01.11
"Roz Ana",478,5605,473.22,2019.01.04,2019.01.11
"Meat Inc.",567,5606,561.33,2019.01.05,2019.01.11
"The Galley",98,5604,97.02,2019.01.04,2019.01.10
Leggero,458,5603,453.42,2019.01.04,2019.01.10
"Maki Restaurant",232,5599,229.68,2019.01.02,2019.01.09
"Cafe Spice Namaste",72,5588,71.28,2019.01.02,2019.01.08
"Cafe Spice Namaste Ltd",416,5597,411.84,2019.01.02,2019.01.08
Indique,541,5594,535.59,2019.01.02,2019.01.08
"River Terrace Cafe",52,5591,51.48,2019.01.02,2019.01.08
"The Regency Club",2364,5586,2340.36,2019.01.02,2019.01.08
"Meejana Windsor",127,5589,125.73,2019.01.02,2019.01.08
"Zafferelli ",493,5587,488.07,2019.01.02,2019.01.08
"Erpingham House",253,5598,250.47,2019.01.02,2019.01.08
"V-Rev Manchester",2631,5580,2604.69,2019.01.02,2019.01.08
"Hungry Oven",166,5595,164.34,2019.01.02,2019.01.08
Dokke,166,5583,164.34,2019.01.02,2019.01.08
"Smoke & Rye",308,5584,304.92,2019.01.02,2019.01.08
"Robinsons Farm Shop",282,5585,279.18,2019.01.02,2019.01.08
"Le Roi Fou",21,5581,20.79,2019.01.02,2019.01.08
"Business Fuel Cards Pty Ltd",389,5564,385.11,2018.12.04,2019.01.03
Rossopomodoro,7456,5570,7381.44,2018.12.14,2019.01.03
REDBOX,1,5432,0.99,2018.09.27,2019.01.03
REDBOX,8,5425,7.92,2018.09.18,2019.01.03
REDBOX,10,5379,9.9,2018.08.16,2019.01.03
Zouk,3389,5543,3355.11,2018.12.03,2019.01.03
Total,45440,,40524.49,
