Company,"Amount Trees","Invoice Number",Money,"Date Invoice"
"Waterside Bistro & Bar",109,5739,107.91,2019.03.25
"Waterside Bistro & Bar",111,5738,109.89,2019.03.25
"Old Youth",6,5737,2.97,2019.03.22
CSRA,2,5736,1.98,2019.03.13
"Meat Inc.",288,5735,285.12,2019.03.13
Leggero,603,5734,596.97,2019.03.13
"Cfd Ichangedworld's",1,5733,0,2019.03.13
"Cfd Ichangedworld's",1,5732,0,2019.03.12
"Cfd Ichangedworld's",1,5731,0,2019.03.12
"Eco Roast",151,5730,149.49,2019.03.11
Høst,736,5729,728.64,2019.03.11
Cofoco,4404,5728,4359.96,2019.03.11
"Cfd Ichangedworld's",1,5727,0,2019.03.11
"Cfd Ichangedworld's",2,5726,0,2019.03.11
"New MoOn Tapas ",1,5725,0.99,2019.03.11
"Caesars Entertainment UK",1491,5724,1476.09,2019.03.08
Rossopomodoro,3747,5723,3709.53,2019.03.08
LoopUp,724,5722,716.76,2019.03.08
"The Vaults Theatre",9,5721,8.91,2019.03.07
"Windsor Bars",431,5720,426.69,2019.03.06
LowToxBox,8,5719,6.32,2019.03.06
"Lal Churrasco",128,5718,126.72,2019.03.06
"Business Fuel Cards Pty Ltd",398,5716,394.02,2019.03.05
"Cardlink Systems Ltd",8469,5715,8384.31,2019.03.05
Frenchie,1267,5714,1254.33,2019.03.05
"Roz Ana",211,5713,208.89,2019.03.04
Tredwells,893,5712,884.07,2019.03.04
"The Set",42,5711,41.58,2019.03.04
Meejana,199,5710,197.01,2019.03.04
Meejana,175,5709,173.25,2019.03.04
"Cafe Spice Namaste Ltd",6,5708,5.94,2019.03.01
"Cohort Hostel",0,5707,0,2019.03.01
"The Grazing Goat",154,5706,152.46,2019.03.01
"The Alfred Tennyson",754,5705,746.46,2019.03.01
"The Harbour Club",161,5704,159.39,2019.03.01
"The Harbour Club",161,5703,159.39,2019.03.01
"The Coach Makers Arms",590,5702,584.1,2019.03.01
Yamas,1294,5701,1281.06,2019.03.01
"Vault Festival",995,5700,985.05,2019.03.01
Kai,1109,5699,1097.91,2019.03.01
"Hungry Oven",134,5698,132.66,2019.03.01
Indique,521,5697,515.79,2019.03.01
"French Kitchen",2,5696,1.98,2019.03.01
"River Terrace Cafe",29,5695,28.71,2019.03.01
REDBOX,59,5694,58.41,2019.03.01
"Meejana Windsor",185,5693,183.15,2019.03.01
"Cafe Spice Namaste",191,5692,189.09,2019.03.01
"Zafferelli ",165,5691,163.35,2019.03.01
"The Regency Club",1989,5690,1969.11,2019.03.01
"Robinsons Farm Shop",172,5689,170.28,2019.03.01
"Smoke & Rye",616,5688,609.84,2019.03.01
Dokke,267,5687,264.33,2019.03.01
Zouk,3301,5686,3267.99,2019.03.01
"V-Rev Manchester",2470,5685,2445.3,2019.03.01
"The Little Viet Kitchen",619,5684,612.81,2019.03.01
"Lal Churrasco",51,5682,50.49,2019.02.27
"The Set",42,5681,41.58,2019.02.27
"Caesars Entertainment UK",1314,5680,1300.86,2019.02.25
"Eco Roast",5,5679,4.95,2019.02.22
"Eco Roast",1,5678,0.99,2019.02.17
"Eco Roast",5,5677,4.95,2019.02.15
"Eco Roast",5,5676,4.95,2019.02.15
"Eco Roast",5,5675,4.95,2019.02.15
"Eco Roast",1,5674,0.99,2019.02.15
"Eco Roast",121,5673,0.99,2019.02.15
"Erpingham House",265,5672,262.35,2019.02.14
Keltbray,346,5671,342.54,2019.02.14
"Armstrong Fluid Technology",1,5666,0.99,2019.02.12
"Maki Restaurant",134,5665,132.66,2019.02.12
"The Galley",121,5664,119.79,2019.02.12
"Savona Foodservice",76,5663,37.62,2019.02.12
"Business Fuel Cards Pty Ltd",398,5662,394.02,2019.02.11
"Cardlink Systems Ltd",8323,5661,8239.77,2019.02.11
"Eco Roast",1,5660,0.99,2019.02.11
Meejana,225,5659,222.75,2019.02.11
Frenchie,1267,5658,1254.33,2019.02.11
Rossopomodoro,3759,5657,3721.41,2019.02.11
"Sonne Energéticos",496,5656,491.04,2019.02.07
Total,57515,,56772.92,
