first_name,last_name,company_name,email,website,unique_url
Atul1,Developer1,"Test Comp1",testing.whizkraft1@gmail.com,https://greenearthappeal.org,https://greenearthappeal.org/free-tree/f0fe54
Atul2,Developer2,"Test Comp2",testing.whizkraft2@gmail.com,https://greenearthappeal.org,https://greenearthappeal.org/free-tree/d9d219
